GSE1338852.RData
…
## Calculating cluster 17

## Calculating cluster 18

## Calculating cluster 19

## Calculating cluster 20

## Calculating cluster 21

## Calculating cluster 22

GSE.markers %>% group_by(cluster) %>% top_n(10, avg_logFC)

## # A tibble: 230 x 7
## # Groups:   cluster [23]
##        p_val avg_logFC pct.1 pct.2 p_val_adj cluster gene     
##        <dbl>     <dbl> <dbl> <dbl>     <dbl> <fct>   <chr>    
##  1 0.            1.00  0.974 0.56  0.        0       CTNNA3   
##  2 0.            0.981 0.997 0.755 0.        0       IL1RAPL1 
##  3 0.            0.967 0.923 0.466 0.        0       ST18     
##  4 0.            0.965 0.907 0.475 0.        0       SLC24A2  
##  5 1.23e-284     1.03  0.846 0.455 1.33e-280 0       NKAIN2   
##  6 2.33e-256     1.10  0.59  0.193 2.53e-252 0       PDE1A    
##  7 5.35e-238     0.959 0.748 0.348 5.80e-234 0       MIR219A2 
##  8 1.23e-231     0.963 0.594 0.206 1.33e-227 0       AK5      
##  9 7.81e-213     1.06  0.502 0.163 8.47e-209 0       HS3ST5   
## 10 8.81e-155     0.986 0.431 0.151 9.55e-151 0       LINC01170
## # ... with 220 more rows
…
